{
  "LevelsDictionary": {
    "1": "20/16:\n....................\n....................\n....................\n....................\n.........__.._......\n......._.|._..|.....\n......_.L||...|.....\n....._....L___|.....\n...._...............\n..________________..\n....................\n....................\n....................\n....................\n....................\n....................\n:3/7:12/8/T",
    "2": "20/16:\n....................\n....................\n......__.___........\n......|.............\n......|_.__.........\n......||...L._......\n......||__.|........\n......||..||_.......\n......|L__|_........\n......|....|........\n......L.___|........\n....................\n......___._.........\n....................\n....................\n....................\n:7/4:9/9/F",
    "3": "20/16:\n....................\n....................\n....................\n....................\n............._......\n..........._.L|.....\n..._._...._L|LL.....\n....L.L.._|...L|....\n.....L.L_|..........\n......L.............\n.......L............\n....................\n....................\n....................\n....................\n....................\n:4/10:15/8/F",
    "4": "20/16:\n....................\n....................\n....................\n....................\n....................\n....................\n..._.._._...._._....\n....|.|L||_..|......\n....L_|..L||_|......\n...........|........\n....................\n....................\n....................\n....................\n....................\n....................\n:4/10:16/10/T",
    "5": "20/16:\n....................\n....................\n....................\n........_...........\n......._|L..........\n..........L.........\n......__._.L........\n......|...__L_......\n......L..|.._.......\n......|._|._........\n......L_|._.........\n......__._____......\n....................\n....................\n....................\n....................\n:14/9:7/6/T",
    "6": "20/16:\n....................\n....................\n....................\n....._____..___.....\n.....|..__L....|....\n.....L._|..__..|....\n.....|.....|.L_|....\n.....|__.|.L_|.|....\n.....|..||.....|....\n.....|..LL_____|....\n.....|._.......|....\n.....|........_|....\n.....L________......\n....................\n....................\n....................\n:12/9:15/4/F",
    "7": "20/16:\n....................\n....................\n.................._.\n...................L\n...............__...\n.............._..._.\n..............L|._|.\n............._.._L|.\n.............||_L|..\n........._._.||||...\n_.......|||L|L||....\n.||._.__|||.........\n.L|.||..............\n..__||..............\n....................\n....................\n:1/6:14/8/T",
    "8": "20/16:\n....................\n....................\n....__________......\n....|.___.....__|...\n....L_________..|...\n....|.....__.._.|...\n....L________...|...\n....|........___|...\n....L___..____..|...\n....L___.___....|...\n....|...____....|...\n....|.....___...|...\n....L____....___|...\n....L___________|...\n....................\n....................\n:5/12:16/4/T",
    "9": "20/16:\n....................\n....................\n................__..\n....._._._._._._LLL.\n..___LLLLLLLLLLL|...\n..|.L|L|L|L|L|L|____\n..|_............L__|\n..|......_.......... \n..L......L|___......\n..LL_.......LLL.....\n...LLL........LL_...\n.....LL_._.._._L|...\n.......LLL|.LLL|....\n........L|L_|L|.....\n....................\n....................\n:3/11:10/9/F",
    "10": "20/16:\n....................\n....................\n....................\n....................\n......_._._.........\n....._L|L||.........\n......|...L.........\n......L_...||.......\n.......LL_.L|.......\n.........|..|.......\n.........|..|.......\n.........L__|.......\n....................\n....................\n....................\n....................\n:11/10:7/12/T",
    "11": "20/16:\n.....................\n.....................\n.....................\n.............._......\n............._||.....\n..........._|........\n........._|..........\n......__|.__.___.....\n...___L|._L_|L__|....\n...|LL|._|...........\n...|..__|............\n...|...|.............\n...L__.|.............\n....LLL|.............\n.....................\n.....................\n:10/10:15/9/T",
    "12": "20/16:\n....................\n....................\n....................\n....................\n...._.____..........\n.._.L|LLL|........._\n__L|.....|.____.___|\n.L|..__..L_|...|||..\n..L..LLL.......L||._\n_..L...L|.......L|L_\nL|.|................\n...|................\n...L................\n....................\n....................\n....................\n:1/10:20/8/T",
    "13": "20/16:\n....................\n....................\n....................\n..________________..\n..|...............|.\n..|...............|.\n..|___......_.....|.\n..|...L.....||....|.\n..L_._.L..._|L....|.\n..|...__L__|..|...|.\n..|._.|...._.._._.|.\n..|_|_|._._._..L|.|.\n..|...._._..__....|.\n..L_______________|.\n....................\n....................\n:10/7:18/3/T",
    "14": "20/16:\n....................\n....................\n......______........\n....__|.LLLLL.......\n..._|.L.....LL_.....\n....L.LL._..........\n.....|.L||L...__....\n.....L..L|L|._L|....\n......L....__L|.....\n......LL__.LL|......\n.......L|L|.........\n........L...........\n........LL_.........\n.........L|.........\n....................\n....................\n:8/7:7/12/T",
    "15": "20/16:\n....................\n....................\n....................\n....................\n....................\n.....___.__.____....\n.....LLLL|..LLL|....\n.....|L||...L|_._...\n.....|._|_._|.......\n.....|_|.L|.........\n.....||..._.........\n.....L|.............\n....................\n....................\n....................\n....................\n:6/11:6/5/T",
    "16": "20/16:\n....................\n....................\n....................\n...._...............\n.._.L|_.._____......\n..LL.LL|.|L|L||.....\n....L.LL_|....L._...\n....||LL_|_....LL|..\n..__|L....||._.|....\n......L._.||_LL|....\n.......||L|LLL......\n.......L|....||.....\n.............L|.....\n....................\n....................\n....................\n:3/8:8/10/T",
    "17": "20/16:\n..........L|_.......\n...........LL|......\n..........__LL_____.\n......_.......|.L|..\n......LL._____|_L|..\n.......LL|L|.L|L|...\n...........L.__L|...\n............|LL|....\n............L|L|....\n..............|.....\n............__|.....\n............|.......\n..........._|.......\n....._.__._|........\n.__._LL|L|L|........\n_LLLL|.L|...........\n:1/1:14/7/F",
    "18": "20/16:\n....................\n........._..........\n........_|L..___....\n......._|L|L.L_LL...\n...._._|L|L||...LL..\n..._|||L|..LL.....L.\n...LL|L|.....L._._LL\n.._L|L|....._LL|LLL|\n._|LL|......L|....L|\n.|..|...............\n_|__|...............\n.L|.................\n....................\n....................\n....................\n....................\n:10/13:4/5/T",
    "19": "20/16:\n....................\n..........______....\n..........LLL___|...\n......___.....L|....\n....._LLLL._...L....\n...._L|....L|_......\n..._LL__.._._L|.....\n....L|..|.LLL|......\n.....|..|_.L|.......\n.....L._|...........\n........___.........\n........L__L........\n...........L|.......\n............._._....\n....................\n....................\n:16/3:16/12/T",
    "20": "20/16:\n....................\n............._._._..\n.........__..LLL|...\n........_LLL...._...\n......._|...._._|...\n........L_.._LLL|...\n.........LL.LL|.....\n..........LLL|......\n..........L|........\n.....___._|.........\n.....L||.L|.........\n...._..|.|..........\n....L|.LL|..........\n..._|...............\n.._|................\n.LL|................\n:2/1:11/13/F",
    "21": "20/16:\n....................\n__._._._............\nLL|||||||........_..\n..|L||||L..._..._|._\n_.L__LL|||..|...L|..\nLLLL|.LL|L..|..L|.__\n........|||_L_L|..L|\n....._..L||L|..._L|.\n.........|L|..._L|..\n...._._..L|.___L|...\n..........._L__|....\n...___.__._L|.......\n...L_|.LLLL|........\n....................\n....................\n....................\n:1/15:1/12/T",
    "22": "20/16:\n....................\n....................\n._..._._............\n_LL..L|.............\nL|LL_|_._.._.._._...\n.L|._.L|.__LL.L|.L..\n....L|.__LL|L|...|..\n.....L_L|....._._|..\n......LLL__.._|.....\n.......L|_LL_.L.....\n.......L|LLL|.......\n.......L|.L|._......\n..............L_....\n..............L|L...\n................LL_.\n.................LL|\n:19/2:2/11/T",
    "23": "20/16:\n....................\n....................\n............_.......\n.........___|.......\n.........|LL|_......\n........_|...L|.....\n......._|_.._.......\n......_|.LL.||......\n.......L...||L......\n........L..L|.......\n........LL_|........\n........L|..........\n....................\n....................\n....................\n....................\n\n:11/9:13/10/T",
    "24": "20/16:\n....................\n....................\n....................\n........._..........\n........_...........\n......._.._.........\n..........._........\n......_....L|.......\n........_...L.......\n....................\n........._.__.......\n.........._.L|......\n....................\n....................\n....................\n....................\n:13/6:12/8/F",
    "25": "20/16:\n....................\n....................\n______..............\n......|____._.__....\n___.__||.....||.|...\n.L|....L_.___|L_|...\n.LL.......LL|..L._..\n..._.._.._......L|..\n_____.L|.L|___....__\n|...||L|.L|L__L...|.\nL_._||..___...LL._L_\n|....|_....|........\n|....LLL___|........\nL____|..............\n....................\n....................\n:1/6:7/5/T",
    "26": "20/16:\n....................\n....................\n....................\n..........._........\n...........LL._.....\n...........|........\n...........|._......\n.........._L_.......\n........._|..|......\n.......__LL._|......\n....._.L|.LLL|......\n.....L|....L|.......\n......L.............\n....................\n....................\n....................\n:6/6:12/13/T",
    "27": "20/16:\n....................\n....................\n....................\n........._._........\n.......__L|L|.......\n......|...L|L.......\n......L__.LLLL......\n......LLL|..|.|.....\n........LL__L.|.....\n.........L|L|.|.....\n..........|.._|.....\n..........L__L|.....\n....................\n....................\n....................\n....................\n:12/10:14/6/T",
    "28": "20/16:\n....................\n........._..........\n.........L|.........\n.........|..........\n.........|..........\n........_L._........\n......._L|||........\n..........L|........\n.......___|.........\n.......L||..........\n.........L..........\n..........L.........\n....................\n....................\n....................\n....................\n:11/5:9/11/T",
    "29": "20/16:\n....................\n....................\n....................\n....................\n......_.............\n......._._..._......\n....._.._.._.__.....\n........_.__...L....\n......_..._._._.....\n.......L_._.........\n.........L|.........\n....................\n....................\n....................\n....................\n....................\n:10/6:10/10/F",
    "30": "20/16:\n....................\n...___________..._..\n...|.........___.|..\n...L__._.___.....|..\n...|....|...L....|..\n...L.__.L_._.L...|..\n...|...L....__L_.|..\n...L.__|L_.|.._..|..\n...|......L|._.._|..\n...L_._.__|._.._.|..\n...|.__LL_._____.|..\n...L.........|...|..\n...L_____________|..\n....................\n....................\n....................\n:16/10:9/7/T"
  }
}